…
É possível buscar partidas das formas usadas regularmentes no
`tidyverse`.

``` r
campeonato %>% 
  filter(resultado == "1/2-1/2")
#> # A tibble: 45 x 6
#>    evento               local   brancas          pretas         resultado pgn   
#>    <chr>                <chr>   <chr>            <chr>          <chr>     <list>
#>  1 87o Campeonato Bras~ Cuiaba~ Proudian, Armen  Lima, Carlos ~ 1/2-1/2   <chr ~
#>  2 87o Campeonato Bras~ Cuiaba~ Correa, Joao Pe~ Federzoni, En~ 1/2-1/2   <chr ~
#>  3 87o Campeonato Bras~ Cuiaba~ Mazetto, Sergio~ Da Cruz, Emer~ 1/2-1/2   <chr ~
#>  4 87o Campeonato Bras~ Cuiaba~ Urquiza, Marcel~ Olivo, Anibal~ 1/2-1/2   <chr ~
#>  5 87o Campeonato Bras~ Cuiaba~ Barbosa Filho, ~ Toth, Peter    1/2-1/2   <chr ~
#>  6 87o Campeonato Bras~ Cuiaba~ De Andrade, Dal~ Naief Moreira~ 1/2-1/2   <chr ~
#>  7 87o Campeonato Bras~ Cuiaba~ Araujo, Everson~ Ferreira, Tha~ 1/2-1/2   <chr ~
#>  8 87o Campeonato Bras~ Cuiaba~ De Souza, Eliel~ Almeida, Tiag~ 1/2-1/2   <chr ~
#>  9 87o Campeonato Bras~ Cuiaba~ Ferreira, Andre~ Baeta, Marcio~ 1/2-1/2   <chr ~
#> 10 87o Campeonato Bras~ Cuiaba~ Lopes, Wendell ~ Felicio, Leon~ 1/2-1/2   <chr ~
#> # ... with 35 more rows
```
…
